^C:\USERS\MAGSHIMIM\SOURCE\REPOS\MICHELLE_EX6\EX6_2A\SHAPE.CPP
/c /ZI /nologo /W3 /WX- /diagnostics:classic /sdl /Od /Oy- /D _MBCS /Gm- /EHsc /RTC1 /MDd /GS /fp:precise /permissive- /Zc:wchar_t /Zc:forScope /Zc:inline /Fo"DEBUG\\" /Fd"DEBUG\VC141.PDB" /Gd /TP /analyze- /FC C:\USERS\MAGSHIMIM\SOURCE\REPOS\MICHELLE_EX6\EX6_2A\SHAPE.CPP
^C:\USERS\MAGSHIMIM\SOURCE\REPOS\MICHELLE_EX6\EX6_2A\MATHUTILS.CPP
/c /ZI /nologo /W3 /WX- /diagnostics:classic /sdl /Od /Oy- /D _MBCS /Gm- /EHsc /RTC1 /MDd /GS /fp:precise /permissive- /Zc:wchar_t /Zc:forScope /Zc:inline /Fo"DEBUG\\" /Fd"DEBUG\VC141.PDB" /Gd /TP /analyze- /FC C:\USERS\MAGSHIMIM\SOURCE\REPOS\MICHELLE_EX6\EX6_2A\MATHUTILS.CPP
^C:\USERS\MAGSHIMIM\SOURCE\REPOS\MICHELLE_EX6\EX6_2A\PENTAGON.CPP
/c /ZI /nologo /W3 /WX- /diagnostics:classic /sdl /Od /Oy- /D _MBCS /Gm- /EHsc /RTC1 /MDd /GS /fp:precise /permissive- /Zc:wchar_t /Zc:forScope /Zc:inline /Fo"DEBUG\\" /Fd"DEBUG\VC141.PDB" /Gd /TP /analyze- /FC C:\USERS\MAGSHIMIM\SOURCE\REPOS\MICHELLE_EX6\EX6_2A\PENTAGON.CPP
^C:\USERS\MAGSHIMIM\SOURCE\REPOS\MICHELLE_EX6\EX6_2A\CIRCLE.CPP
/c /ZI /nologo /W3 /WX- /diagnostics:classic /sdl /Od /Oy- /D _MBCS /Gm- /EHsc /RTC1 /MDd /GS /fp:precise /permissive- /Zc:wchar_t /Zc:forScope /Zc:inline /Fo"DEBUG\\" /Fd"DEBUG\VC141.PDB" /Gd /TP /analyze- /FC C:\USERS\MAGSHIMIM\SOURCE\REPOS\MICHELLE_EX6\EX6_2A\CIRCLE.CPP
^C:\USERS\MAGSHIMIM\SOURCE\REPOS\MICHELLE_EX6\EX6_2A\HEXAGON.CPP
/c /ZI /nologo /W3 /WX- /diagnostics:classic /sdl /Od /Oy- /D _MBCS /Gm- /EHsc /RTC1 /MDd /GS /fp:precise /permissive- /Zc:wchar_t /Zc:forScope /Zc:inline /Fo"DEBUG\\" /Fd"DEBUG\VC141.PDB" /Gd /TP /analyze- /FC C:\USERS\MAGSHIMIM\SOURCE\REPOS\MICHELLE_EX6\EX6_2A\HEXAGON.CPP
^C:\USERS\MAGSHIMIM\SOURCE\REPOS\MICHELLE_EX6\EX6_2A\PARALLELOGRAM.CPP
/c /ZI /nologo /W3 /WX- /diagnostics:classic /sdl /Od /Oy- /D _MBCS /Gm- /EHsc /RTC1 /MDd /GS /fp:precise /permissive- /Zc:wchar_t /Zc:forScope /Zc:inline /Fo"DEBUG\\" /Fd"DEBUG\VC141.PDB" /Gd /TP /analyze- /FC C:\USERS\MAGSHIMIM\SOURCE\REPOS\MICHELLE_EX6\EX6_2A\PARALLELOGRAM.CPP
^C:\USERS\MAGSHIMIM\SOURCE\REPOS\MICHELLE_EX6\EX6_2A\QUADRILATERAL.CPP
/c /ZI /nologo /W3 /WX- /diagnostics:classic /sdl /Od /Oy- /D _MBCS /Gm- /EHsc /RTC1 /MDd /GS /fp:precise /permissive- /Zc:wchar_t /Zc:forScope /Zc:inline /Fo"DEBUG\\" /Fd"DEBUG\VC141.PDB" /Gd /TP /analyze- /FC C:\USERS\MAGSHIMIM\SOURCE\REPOS\MICHELLE_EX6\EX6_2A\QUADRILATERAL.CPP
^C:\USERS\MAGSHIMIM\SOURCE\REPOS\MICHELLE_EX6\EX6_2A\RECTANGLE.CPP
/c /ZI /nologo /W3 /WX- /diagnostics:classic /sdl /Od /Oy- /D _MBCS /Gm- /EHsc /RTC1 /MDd /GS /fp:precise /permissive- /Zc:wchar_t /Zc:forScope /Zc:inline /Fo"DEBUG\\" /Fd"DEBUG\VC141.PDB" /Gd /TP /analyze- /FC C:\USERS\MAGSHIMIM\SOURCE\REPOS\MICHELLE_EX6\EX6_2A\RECTANGLE.CPP
^C:\USERS\MAGSHIMIM\SOURCE\REPOS\MICHELLE_EX6\EX6_2A\MAIN.CPP
/c /ZI /nologo /W3 /WX- /diagnostics:classic /sdl /Od /Oy- /D _MBCS /Gm- /EHsc /RTC1 /MDd /GS /fp:precise /permissive- /Zc:wchar_t /Zc:forScope /Zc:inline /Fo"DEBUG\\" /Fd"DEBUG\VC141.PDB" /Gd /TP /analyze- /FC C:\USERS\MAGSHIMIM\SOURCE\REPOS\MICHELLE_EX6\EX6_2A\MAIN.CPP
